{
  "project_info": {
    "project_number": "675690598716",
    "firebase_url": "https://free-gen-reality.firebaseio.com",
    "project_id": "free-gen-reality",
    "storage_bucket": "free-gen-reality.appspot.com"
  },
  "client": [
    {
      "client_info": {
        "mobilesdk_app_id": "1:675690598716:android:1741556a4da3bfad3e0e39",
        "android_client_info": {
          "package_name": "com.example.flutterfreegenapp"
        }
      },
      "oauth_client": [
        {
          "client_id": "675690598716-11n7g4ab93stdq8q1g31ioqvfcf632cb.apps.googleusercontent.com",
          "client_type": 3
        }
      ],
      "api_key": [
        {
          "current_key": "AIzaSyD01Gb-JYbD-AfyktSShHagfi-I8v5_Upc"
        }
      ],
      "services": {
        "appinvite_service": {
          "other_platform_oauth_client": [
            {
              "client_id": "675690598716-11n7g4ab93stdq8q1g31ioqvfcf632cb.apps.googleusercontent.com",
              "client_type": 3
            }
          ]
        }
      }
    }
  ],
  "configuration_version": "1"
}